{
  "kind": "collectionType",
  "collectionName": "pmsfeedbacks",
  "info": {
    "singularName": "pmsfeedback",
    "pluralName": "pmsfeedbacks",
    "displayName": "PMS Feedbacks",
    "description": ""
  },
  "options": {
    "draftAndPublish": false
  },
  "attributes": {
    "feedback": {
      "type": "json"
    },
    "feedback_trigger_date": {
      "type": "time"
    },
    "cooldown_period_date": {
      "type": "time"
    },
    "versionResource": {
      "type": "relation",
      "relation": "manyToMany",
      "target": "plugin::pms.pmsversionresource",
      "inversedBy": "feedback"
    },
    "feedbackAssesmentForm": {
      "type": "relation",
      "relation": "manyToOne",
      "target": "plugin::feedbacks.pmsfeedbackassesmentformformat",
      "inversedBy": "pmsFeedbacks"
    },
    "submittedDate": {
      "type": "datetime"
    },
    "expired": {
      "type": "boolean"
    }
  }
}
