{
  "kind": "collectionType",
  "collectionName": "designations",
  "info": {
    "singularName": "designation",
    "pluralName": "designations",
    "displayName": "Designation"
  },
  "options": {
    "draftAndPublish": true
  },
  "pluginOptions": {},
  "attributes": {
    "name": {
      "type": "string"
    },
    "department": {
      "type": "relation",
      "relation": "manyToOne",
      "target": "api::department.department",
      "inversedBy": "designations"
    },
    "image": {
      "allowedTypes": [
        "images",
        "files",
        "videos",
        "audios"
      ],
      "type": "media",
      "multiple": false
    }
  }
}
