{
  "compilerOptions": {
    "jsx": "react",
    "jsx": "react",
    "jsx": "react",
    "moduleResolution": "NodeNext",
    "target": "ES2021",
    "checkJs": true,
    "allowJs": true,
    "module": "NodeNext",
    "strict": false,
  }
}
