{
  "kind": "collectionType",
  "collectionName": "resignation_checklist_exit_form_enums",
  "info": {
    "singularName": "resignation-checklist-exit-form-enum",
    "pluralName": "resignation-checklist-exit-form-enums",
    "displayName": "Resignation Checklist Exit Form Enum"
  },
  "options": {
    "draftAndPublish": true
  },
  "pluginOptions": {},
  "attributes": {
    "task": {
      "type": "text"
    }
  }
}
