{
  "kind": "collectionType",
  "collectionName": "resignation_checklist_asset_enums",
  "info": {
    "singularName": "resignation-checklist-asset-enum",
    "pluralName": "resignation-checklist-asset-enums",
    "displayName": "Resignation Checklist Asset Enum"
  },
  "options": {
    "draftAndPublish": true
  },
  "pluginOptions": {},
  "attributes": {
    "task": {
      "type": "text"
    }
  }
}
