{
  "kind": "collectionType",
  "collectionName": "version_resources",
  "info": {
    "singularName": "version-resource",
    "pluralName": "version-resources",
    "displayName": "version-resources",
    "description": ""
  },
  "options": {
    "draftAndPublish": true
  },
  "pluginOptions": {},
  "attributes": {}
}
