{
  "kind": "collectionType",
  "collectionName": "pmsversions",
  "info": {
    "singularName": "pmsversion",
    "pluralName": "pmsversions",
    "displayName": "pmsversion",
    "description": ""
  },
  "options": {
    "draftAndPublish": false
  },
  "attributes": {
    "versionName": {
      "type": "string",
      "required": true,
      "maxLength": 20
    },
    "description": {
      "type": "text",
      "required": true,
      "maxLength": 2000
    },
    "startDate": {
      "required": true,
      "type": "date"
    },
    "endDate": {
      "type": "date",
      "required": true
    },
    "versionComment": {
      "type": "relation",
      "relation": "oneToMany",
      "target": "plugin::pms.versioncommentorrequest",
      "mappedBy": "version"
    },
    "status": {
      "type": "string",
      "required": true,
      "maxLength": 20
    },
    "thread": {
      "type": "relation",
      "relation": "manyToOne",
      "target": "plugin::pms.pmsthread",
      "inversedBy": "versions"
    },
    "versionResources": {
      "type": "relation",
      "relation": "manyToMany",
      "target": "plugin::pms.pmsversionresource",
      "mappedBy": "versionDls"
    },
    "isDelayed": {
      "type": "enumeration",
      "enum": [
        "true",
        "false"
      ],
      "required": true,
      "default": "false"
    },
    "projectName": {
      "type": "string",
      "required": true
    }
  }
}
