{
  "kind": "collectionType",
  "collectionName": "tl_task_clearances",
  "info": {
    "singularName": "tl-task-clearance",
    "pluralName": "tl-task-clearances",
    "displayName": "TL Task Clearance",
    "description": ""
  },
  "options": {
    "draftAndPublish": true
  },
  "pluginOptions": {},
  "attributes": {
    "task": {
      "type": "string"
    },
    "status": {
      "type": "string"
    },
    "comments": {
      "type": "text"
    },
    "employee": {
      "type": "relation",
      "relation": "manyToOne",
      "target": "api::employee.employee",
      "inversedBy": "tl_task_clearances"
    },
    "resignation": {
      "type": "relation",
      "relation": "manyToOne",
      "target": "api::resignation.resignation",
      "inversedBy": "tl_task_clearances"
    }
  }
}
