{
  "kind": "collectionType",
  "collectionName": "employee_assets",
  "info": {
    "singularName": "employee-asset",
    "pluralName": "employee-assets",
    "displayName": "Employee assets",
    "description": ""
  },
  "options": {
    "draftAndPublish": true
  },
  "pluginOptions": {},
  "attributes": {
    "employeeName": {
      "type": "string"
    },
    "serialNumber": {
      "type": "string"
    },
    "model": {
      "type": "string"
    },
    "startDate": {
      "type": "date"
    },
    "endDate": {
      "type": "date"
    },
    "status": {
      "type": "enumeration",
      "enum": [
        "Active",
        "Inactive"
      ],
      "default": "Active",
      "required": false
    },
    "employeeId": {
      "type": "string"
    }
  }
}
