{
  "kind": "collectionType",
  "collectionName": "resignation_experience_letter_progresses",
  "info": {
    "singularName": "resignation-experience-letter-progress",
    "pluralName": "resignation-experience-letter-progresses",
    "displayName": "Resignation Experience Letter Progress",
    "description": ""
  },
  "options": {
    "draftAndPublish": true
  },
  "pluginOptions": {},
  "attributes": {
    "progress": {
      "type": "string"
    },
    "scheduledDate": {
      "type": "date"
    },
    "holdOutReason": {
      "type": "text"
    },
    "personalEmailId": {
      "type": "email"
    },
    "resignation": {
      "type": "relation",
      "relation": "oneToOne",
      "target": "api::resignation.resignation",
      "inversedBy": "resignation_experience_letter_progress"
    }
  }
}
